Summarizing Sex in the SRA
…
4 Looking at sex broken down by project

## Broken down by project type 
(proj <- meta %>%  group_by(ProjectID) %>% select(ProjectID)  %>% summarise(n = n())) 

## # A tibble: 1,991 x 2
##    ProjectID     n
##        <int> <int>
##  1         0   607
##  2     30709   533
##  3     33835     1
##  4     33851     1
##  5     33865     1
##  6     34535   538
##  7     39289    14
##  8     60131     2
##  9     63201     1
## 10     69989     4
## # ... with 1,981 more rows

(sex_summ <- meta %>%  group_by(ProjectID,predicted_sex) %>% select(predicted_sex) %>% dplyr::summarise(Count = n())) 

## # A tibble: 2,829 x 3
## # Groups:   ProjectID [?]
##    ProjectID predicted_sex Count
##        <int>        <fctr> <int>
##  1         0        female   224
##  2         0          male   191
##  3         0    unassigned   192
##  4     30709        female   414
##  5     30709          male   118
##  6     30709    unassigned     1
##  7     33835        female     1
##  8     33851        female     1
##  9     33865        female     1
## 10     34535        female   203
## # ... with 2,819 more rows
…
## add scaled value for bar size
range_new <- function(x){(((x - min(x)) * (4 - 0.5)) / (max(x) - min(x))) + 0.5}
newn<-range_new(b$n)
b$newn <- newn
# test$ProjectID <- within(test, factor(ProjectID, levels = test$ProjectID[order(newn)]))

# %>%  dplyr::filter(n>=10)

b %>% select(-Count) %>% spread(key=predicted_sex, value=prop)  -> out
out[is.na(out)] <- 0
 (out %>%arrange(female, female+male, unassigned) -> out)

## # A tibble: 1,991 x 7
## # Groups:   ProjectID [1,991]
##    ProjectID     n            type      newn female  male unassigned
##        <chr> <int>           <chr>     <dbl>  <dbl> <dbl>      <dbl>
##  1    124917     1 unassigned only 0.5000000      0     0          1
##  2    127975     2 unassigned only 0.5020456      0     0          1
##  3    143693    15 unassigned only 0.5286382      0     0          1
##  4    145181    18 unassigned only 0.5347750      0     0          1
##  5    148583     4 unassigned only 0.5061368      0     0          1
##  6    154855     2 unassigned only 0.5020456      0     0          1
##  7    184835     2 unassigned only 0.5020456      0     0          1
##  8    208235     1 unassigned only 0.5000000      0     0          1
##  9    224744    17 unassigned only 0.5327294      0     0          1
## 10    229098    14 unassigned only 0.5265926      0     0          1
## # ... with 1,981 more rows
…
# legend(805, 0.4, 
       # legend = names(table(b$predicted_sex)), 
       # fill=c("#940CE8", "#0CBD18", "#E8790C"),
       # cex = 4)

# pdf('/dcl01/leek/data/sellis/barcoding/plots/SexBreakdownByProjectType.pdf',family="Roboto Condensed",height=100,width=100)
# par(mfrow=c(2,2),cex=10)

(b %>% select(-Count) %>% spread(key=predicted_sex, value=prop) %>% dplyr::filter(type=="all") %>% arrange(n) -> out)

## # A tibble: 93 x 7
## # Groups:   ProjectID [93]
##    ProjectID     n  type      newn    female      male unassigned
##        <chr> <int> <chr>     <dbl>     <dbl>     <dbl>      <dbl>
##  1    234019     4   all 0.5061368 0.5000000 0.2500000  0.2500000
##  2    174234     5   all 0.5081823 0.4000000 0.4000000  0.2000000
##  3    277831     5   all 0.5081823 0.2000000 0.6000000  0.2000000
##  4    176714     6   all 0.5102279 0.6666667 0.1666667  0.1666667
##  5    195387     6   all 0.5102279 0.3333333 0.1666667  0.5000000
##  6    236533     6   all 0.5102279 0.5000000 0.1666667  0.3333333
##  7    239967     6   all 0.5102279 0.5000000 0.1666667  0.3333333
##  8    128943     8   all 0.5143191 0.5000000 0.3750000  0.1250000
##  9    284788     8   all 0.5143191 0.6250000 0.1250000  0.2500000
## 10    239412    10   all 0.5184103 0.3000000 0.1000000  0.6000000
## # ... with 83 more rows
…
(b %>% select(-Count) %>% spread(key=predicted_sex, value=prop) %>% dplyr::filter(type=="female & male") %>% arrange(n) -> out)

## # A tibble: 584 x 7
## # Groups:   ProjectID [584]
##    ProjectID     n          type      newn female  male unassigned
##        <chr> <int>         <chr>     <dbl>  <dbl> <dbl>      <dbl>
##  1    142903     2 female & male 0.5020456    0.5   0.5         NA
##  2    145829     2 female & male 0.5020456    0.5   0.5         NA
##  3    151829     2 female & male 0.5020456    0.5   0.5         NA
##  4    163079     2 female & male 0.5020456    0.5   0.5         NA
##  5    176097     2 female & male 0.5020456    0.5   0.5         NA
##  6    178740     2 female & male 0.5020456    0.5   0.5         NA
##  7    188303     2 female & male 0.5020456    0.5   0.5         NA
##  8    229487     2 female & male 0.5020456    0.5   0.5         NA
##  9    229873     2 female & male 0.5020456    0.5   0.5         NA
## 10    232023     2 female & male 0.5020456    0.5   0.5         NA
## # ... with 574 more rows
…
(b %>% select(-Count) %>% spread(key=predicted_sex, value=prop) %>% dplyr::filter(type=="female & unassigned") %>% arrange(n) -> out)

## # A tibble: 57 x 7
## # Groups:   ProjectID [57]
##    ProjectID     n                type      newn    female  male
##        <chr> <int>               <chr>     <dbl>     <dbl> <dbl>
##  1    153681     2 female & unassigned 0.5020456 0.5000000    NA
##  2    191821     2 female & unassigned 0.5020456 0.5000000    NA
##  3    210787     2 female & unassigned 0.5020456 0.5000000    NA
##  4    214890     2 female & unassigned 0.5020456 0.5000000    NA
##  5    260622     2 female & unassigned 0.5020456 0.5000000    NA
##  6    262158     2 female & unassigned 0.5020456 0.5000000    NA
##  7    282807     2 female & unassigned 0.5020456 0.5000000    NA
##  8    169670     3 female & unassigned 0.5040912 0.3333333    NA
##  9    124019     4 female & unassigned 0.5061368 0.7500000    NA
## 10    174525     4 female & unassigned 0.5061368 0.7500000    NA
## # ... with 47 more rows, and 1 more variables: unassigned <dbl>
…
